<?xml version="1.0" encoding="utf-8"?>
<!-- Generator: Adobe Illustrator 23.0.0, SVG Export Plug-In . SVG Version: 6.00 Build 0)  -->
<svg version="1.1" id="Layer_2" xmlns="http://www.w3.org/2000/svg" xmlns:xlink="http://www.w3.org/1999/xlink" x="0px" y="0px"
	 viewBox="0 0 748 365" style="enable-background:new 0 0 748 365;" xml:space="preserve">
<style type="text/css">
	.st0{fill:#28AAA9;}
	.st1{fill:#00033E;}
	.st2{fill:#CCCCCC;}
</style>
<g>
	<path class="st0" d="M401.4,209.1v14.6H334c-3,0-5.8-0.6-8.4-1.9c-2.6-1.3-4.9-3-6.8-5.1c-1.9-2.1-3.5-4.7-4.6-7.6
		c-1.1-2.9-1.7-6-1.7-9.4V181c0-3.3,0.6-6.4,1.7-9.4c1.1-2.9,2.7-5.5,4.6-7.7c1.9-2.2,4.2-3.9,6.8-5.2c2.6-1.3,5.4-1.9,8.4-1.9
		l67.4,0.1v14.6H334c-2.3,0-4.3,0.9-6,2.7c-1.6,1.8-2.5,4-2.5,6.6v18.7c0,2.6,0.8,4.8,2.5,6.6c1.6,1.8,3.6,2.7,6,2.7H401.4z"/>
	<path class="st0" d="M477.4,209.1v14.6h-49.9c-3,0-5.8-0.6-8.4-1.9c-2.6-1.3-4.9-3-6.8-5.1c-1.9-2.1-3.5-4.7-4.6-7.6
		c-1.1-2.9-1.7-6-1.7-9.4V157H419v42.7c0,2.6,0.8,4.8,2.5,6.6c1.6,1.8,3.6,2.7,6,2.7H477.4z"/>
	<path class="st0" d="M506.2,156.6H548c3,0,5.8,0.6,8.4,1.9c2.6,1.3,4.9,3,6.8,5.2c1.9,2.2,3.5,4.7,4.6,7.7c1.1,2.9,1.7,6,1.7,9.4
		v42.9h-13.1v-16.1h-58.7v16.1h-13.1v-42.9c0-3.3,0.6-6.4,1.7-9.4c1.1-2.9,2.7-5.5,4.6-7.7c1.9-2.2,4.2-3.9,6.8-5.2
		C500.4,157.3,503.2,156.6,506.2,156.6z M497.8,192.9h58.7v-12.2c0-2.6-0.8-4.8-2.5-6.6c-1.6-1.8-3.6-2.7-6-2.7h-41.8
		c-2.3,0-4.3,0.9-6,2.7c-1.6,1.8-2.5,4-2.5,6.6V192.9z"/>
	<path class="st0" d="M656.8,157v58.5c0,2-0.5,3.8-1.4,5.3c-0.9,1.5-2.1,2.6-3.6,3.4c-1.4,0.8-3,1.1-4.7,1c-1.7-0.1-3.2-0.8-4.6-2.1
		L589,175v48.7h-13v-58.5c0-2,0.5-3.8,1.4-5.4c0.9-1.5,2.1-2.7,3.6-3.4c1.4-0.7,3-1,4.6-0.9c1.6,0.1,3.2,0.8,4.5,2.1l53.6,47.9V157
		H656.8z"/>
</g>
<g>
	<path class="st1" d="M336.8,239.2h1.2l4.5,14.9l4.6-16.6h2.1l-5.4,19h-2.5l-3.9-12.8l-3.9,12.8H331l-5.4-19h2.1l4.6,16.6
		L336.8,239.2z"/>
	<path class="st1" d="M366.1,239.2h1.2l4.5,14.9l4.6-16.6h2.1l-5.4,19h-2.5l-3.9-12.8l-3.9,12.8h-2.5l-5.4-19h2.1l4.6,16.6
		L366.1,239.2z"/>
	<path class="st1" d="M395.3,239.2h1.2l4.5,14.9l4.6-16.6h2.1l-5.4,19h-2.5l-3.9-12.8l-3.9,12.8h-2.5l-5.4-19h2.1l4.6,16.6
		L395.3,239.2z"/>
	<path class="st1" d="M414.5,255.3c0-0.8,0.6-1.3,1.2-1.3c0.7,0,1.3,0.5,1.3,1.3c0,0.7-0.6,1.3-1.3,1.3
		C415,256.5,414.5,256,414.5,255.3z"/>
	<path class="st1" d="M425.8,237.4h2v18.8h-2V237.4z"/>
	<path class="st1" d="M435.5,239.4v-1.9h12.9v1.9h-5.5v16.9H441v-16.9H435.5z"/>
	<path class="st1" d="M468,252.1l1.4,1.2c-1.6,2.4-4,3.3-6.4,3.3c-4.5-0.1-8-3.3-8-9.9c0-5.7,3.6-9.5,8.3-9.5c2.4,0,4.1,0.9,5.6,2.6
		l-1.3,1.3c-1.2-1.4-2.9-1.9-4.5-1.9c-4.3,0-6.1,4-6.1,7.5c0,4.5,2.1,7.7,6,7.7C464.4,254.4,466.9,253.9,468,252.1z"/>
	<path class="st1" d="M487.1,256.3h-9.9v-18.8h1.9v16.7h8V256.3z"/>
	<path class="st1" d="M495.5,256.3h-2.2l6.7-18.8h2.5l6.2,18.8h-2.1l-1.9-5.9h-7.2L495.5,256.3z M498.2,248.3h5.9l-2.8-9
		L498.2,248.3z"/>
	<path class="st1" d="M518.2,256.3h-1.9v-18.8h1.9l9.4,8.7v-8.7h2v18.8h-2v-7.4l-9.4-8.5V256.3z"/>
	<path class="st1" d="M544.4,256.3h-5.9v-18.8h5.7c2.9,0,5.5,1.3,5.5,4.8c0,1.8-0.8,3.3-2.2,4.1c1.9,0.5,3.1,2.4,3.1,4.5
		C550.6,254.6,547.9,256.3,544.4,256.3z M544.6,245.4c2.3,0,3.1-1.4,3.1-3.1c0-2.3-2.1-2.9-3.6-2.9h-3.7v6H544.6z M540.5,247.3v6.9
		h3.9c1.9,0,4.3-0.8,4.3-3.4c0-2.8-2.9-3.5-4.9-3.5H540.5z"/>
	<path class="st1" d="M564,256.3h-5v-18.8h5c4.6,0,7.4,3.8,7.4,9.4C571.4,251.7,569.4,256.1,564,256.3z M561,254.2h3
		c3.8-0.1,5.4-3.5,5.4-7.3c0-3-1.1-7.3-5.4-7.3h-3V254.2z"/>
	<path class="st1" d="M578.9,255.3c0-0.8,0.6-1.3,1.2-1.3c0.7,0,1.3,0.5,1.3,1.3c0,0.7-0.6,1.3-1.3,1.3
		C579.5,256.5,578.9,256,578.9,255.3z"/>
	<path class="st1" d="M602.4,252.1l1.4,1.2c-1.6,2.4-4,3.3-6.4,3.3c-4.5-0.1-8-3.3-8-9.9c0-5.7,3.6-9.5,8.3-9.5
		c2.4,0,4.1,0.9,5.6,2.6l-1.3,1.3c-1.2-1.4-2.9-1.9-4.5-1.9c-4.3,0-6.1,4-6.1,7.5c0,4.5,2.1,7.7,6,7.7
		C598.8,254.4,601.3,253.9,602.4,252.1z"/>
	<path class="st1" d="M627.9,246.9c0,5.2-3.8,9.7-8.5,9.7c-5,0-8.7-4.5-8.7-9.7c0-5.2,3.8-9.7,8.7-9.7
		C624.1,237.2,627.9,241.7,627.9,246.9z M626,246.9c0-4.1-2.9-7.6-6.6-7.6c-3.9,0-6.8,3.5-6.8,7.6s2.9,7.6,6.8,7.6
		C623.1,254.4,626,250.9,626,246.9z"/>
	<path class="st1" d="M637.7,240.6v15.7h-1.9v-18.8h2.3l5.6,8.6l5.6-8.6h2.3v18.8h-1.9v-15.7l-5.8,8.7h-0.4L637.7,240.6z"/>
</g>
<g>
	<polygon class="st2" points="96.2,78.3 45.7,165 151.7,165 	"/>
	<polygon class="st2" points="273.4,181.7 228,257 315.9,257 	"/>
</g>
<g>
	<g>
		<polygon class="st0" points="164,199.9 164,210.3 105,268.2 105,258.7 		"/>
		<polygon class="st0" points="164,215.5 164,225.9 105,283.8 105,274.3 		"/>
		<polygon class="st0" points="164,231.1 164,241.4 105,299.3 105,289.8 		"/>
		<polygon class="st0" points="164,246.6 164,257 105,314.9 105,305.4 		"/>
	</g>
	<path class="st0" d="M163.8,87h-55.3L96.2,66.2L84.4,82.9c0,0-4.3-49.1,38.7-49.1C170.1,33.8,163.8,87,163.8,87z"/>
	<g>
		<polygon class="st0" points="254.8,93 211,138 219.1,138 263.4,93 		"/>
		<polygon class="st0" points="268.6,93 219,143.6 219,151.7 277.3,93 		"/>
		<polygon class="st0" points="282.1,93 219,157.4 219,165.5 291.1,93 		"/>
		<polygon class="st0" points="295.9,93 219,171.3 219,179.4 304.8,93 		"/>
		<polygon class="st0" points="309.8,93 219,185.1 219,193.2 318.6,93 		"/>
		<polygon class="st0" points="326.2,91 337,91 337,136 283,136 		"/>
		<polygon class="st0" points="369.9,46 179,240.4 179,243.3 373.9,46 		"/>
	</g>
</g>
<g>
	<polygon class="st1" points="164,93 105,93 105,251.8 164,193.9 	"/>
	<polygon class="st1" points="169,93 250.2,93 205.1,138 169,138 	"/>
	<g>
		<polygon class="st1" points="219,212 274,212 274,238 219,293.1 		"/>
		<polygon class="st1" points="274,235 179,332 179,334.9 274,239 		"/>
	</g>
</g>
<g>
	<g>
		<path class="st1" d="M661.5,149.4v-1h6.9v1h-3v9.1h-1v-9.1H661.5z"/>
		<path class="st1" d="M670.6,150v8.5h-1v-10.1h1.2l3,4.6l3-4.6h1.2v10.1h-1V150l-3.1,4.7h-0.2L670.6,150z"/>
	</g>
</g>
</svg>
